-- Merging decision tree log ---
manifest
ADDED from G:\CMU\S3- FALL 15\MOBILE SENSING\ASSIGN 1\Lab1_Handout\Lab1_Handout\app\src\main\AndroidManifest.xml:2:1-52:12
	package
		ADDED from G:\CMU\S3- FALL 15\MOBILE SENSING\ASSIGN 1\Lab1_Handout\Lab1_Handout\app\src\main\AndroidManifest.xml:3:5-34
		INJECTED from G:\CMU\S3- FALL 15\MOBILE SENSING\ASSIGN 1\Lab1_Handout\Lab1_Handout\app\src\main\AndroidManifest.xml
		INJECTED from G:\CMU\S3- FALL 15\MOBILE SENSING\ASSIGN 1\Lab1_Handout\Lab1_Handout\app\src\main\AndroidManifest.xml
	android:versionName
		ADDED from G:\CMU\S3- FALL 15\MOBILE SENSING\ASSIGN 1\Lab1_Handout\Lab1_Handout\app\src\main\AndroidManifest.xml:5:5-30
	android:versionCode
		ADDED from G:\CMU\S3- FALL 15\MOBILE SENSING\ASSIGN 1\Lab1_Handout\Lab1_Handout\app\src\main\AndroidManifest.xml:4:5-28
		INJECTED from G:\CMU\S3- FALL 15\MOBILE SENSING\ASSIGN 1\Lab1_Handout\Lab1_Handout\app\src\main\AndroidManifest.xml
		INJECTED from G:\CMU\S3- FALL 15\MOBILE SENSING\ASSIGN 1\Lab1_Handout\Lab1_Handout\app\src\main\AndroidManifest.xml
	xmlns:android
		ADDED from G:\CMU\S3- FALL 15\MOBILE SENSING\ASSIGN 1\Lab1_Handout\Lab1_Handout\app\src\main\AndroidManifest.xml:2:11-69
uses-sdk
ADDED from G:\CMU\S3- FALL 15\MOBILE SENSING\ASSIGN 1\Lab1_Handout\Lab1_Handout\app\src\main\AndroidManifest.xml:7:5-9:41
	android:targetSdkVersion
		ADDED from G:\CMU\S3- FALL 15\MOBILE SENSING\ASSIGN 1\Lab1_Handout\Lab1_Handout\app\src\main\AndroidManifest.xml:9:9-38
		INJECTED from G:\CMU\S3- FALL 15\MOBILE SENSING\ASSIGN 1\Lab1_Handout\Lab1_Handout\app\src\main\AndroidManifest.xml
		INJECTED from G:\CMU\S3- FALL 15\MOBILE SENSING\ASSIGN 1\Lab1_Handout\Lab1_Handout\app\src\main\AndroidManifest.xml
	android:minSdkVersion
		ADDED from G:\CMU\S3- FALL 15\MOBILE SENSING\ASSIGN 1\Lab1_Handout\Lab1_Handout\app\src\main\AndroidManifest.xml:8:9-35
		INJECTED from G:\CMU\S3- FALL 15\MOBILE SENSING\ASSIGN 1\Lab1_Handout\Lab1_Handout\app\src\main\AndroidManifest.xml
		INJECTED from G:\CMU\S3- FALL 15\MOBILE SENSING\ASSIGN 1\Lab1_Handout\Lab1_Handout\app\src\main\AndroidManifest.xml
uses-permission#android.permission.RECEIVE_BOOT_COMPLETED
ADDED from G:\CMU\S3- FALL 15\MOBILE SENSING\ASSIGN 1\Lab1_Handout\Lab1_Handout\app\src\main\AndroidManifest.xml:11:5-81
	android:name
		ADDED from G:\CMU\S3- FALL 15\MOBILE SENSING\ASSIGN 1\Lab1_Handout\Lab1_Handout\app\src\main\AndroidManifest.xml:11:22-78
uses-permission#android.permission.WRITE_EXTERNAL_STORAGE
ADDED from G:\CMU\S3- FALL 15\MOBILE SENSING\ASSIGN 1\Lab1_Handout\Lab1_Handout\app\src\main\AndroidManifest.xml:12:5-81
	android:name
		ADDED from G:\CMU\S3- FALL 15\MOBILE SENSING\ASSIGN 1\Lab1_Handout\Lab1_Handout\app\src\main\AndroidManifest.xml:12:22-78
uses-permission#android.permission.READ_EXTERNAL_STORAGE
ADDED from G:\CMU\S3- FALL 15\MOBILE SENSING\ASSIGN 1\Lab1_Handout\Lab1_Handout\app\src\main\AndroidManifest.xml:13:5-80
	android:name
		ADDED from G:\CMU\S3- FALL 15\MOBILE SENSING\ASSIGN 1\Lab1_Handout\Lab1_Handout\app\src\main\AndroidManifest.xml:13:22-77
uses-permission#android.permission.GET_TASKS
ADDED from G:\CMU\S3- FALL 15\MOBILE SENSING\ASSIGN 1\Lab1_Handout\Lab1_Handout\app\src\main\AndroidManifest.xml:14:5-68
	android:name
		ADDED from G:\CMU\S3- FALL 15\MOBILE SENSING\ASSIGN 1\Lab1_Handout\Lab1_Handout\app\src\main\AndroidManifest.xml:14:22-65
application
ADDED from G:\CMU\S3- FALL 15\MOBILE SENSING\ASSIGN 1\Lab1_Handout\Lab1_Handout\app\src\main\AndroidManifest.xml:16:5-50:19
	android:label
		ADDED from G:\CMU\S3- FALL 15\MOBILE SENSING\ASSIGN 1\Lab1_Handout\Lab1_Handout\app\src\main\AndroidManifest.xml:18:9-41
	android:icon
		ADDED from G:\CMU\S3- FALL 15\MOBILE SENSING\ASSIGN 1\Lab1_Handout\Lab1_Handout\app\src\main\AndroidManifest.xml:17:9-38
activity#edu.umass.cs.client.MainActivity
ADDED from G:\CMU\S3- FALL 15\MOBILE SENSING\ASSIGN 1\Lab1_Handout\Lab1_Handout\app\src\main\AndroidManifest.xml:19:9-29:20
	android:screenOrientation
		ADDED from G:\CMU\S3- FALL 15\MOBILE SENSING\ASSIGN 1\Lab1_Handout\Lab1_Handout\app\src\main\AndroidManifest.xml:23:13-49
	android:label
		ADDED from G:\CMU\S3- FALL 15\MOBILE SENSING\ASSIGN 1\Lab1_Handout\Lab1_Handout\app\src\main\AndroidManifest.xml:22:13-45
	android:launchMode
		ADDED from G:\CMU\S3- FALL 15\MOBILE SENSING\ASSIGN 1\Lab1_Handout\Lab1_Handout\app\src\main\AndroidManifest.xml:24:13-48
	android:configChanges
		ADDED from G:\CMU\S3- FALL 15\MOBILE SENSING\ASSIGN 1\Lab1_Handout\Lab1_Handout\app\src\main\AndroidManifest.xml:21:13-63
	android:name
		ADDED from G:\CMU\S3- FALL 15\MOBILE SENSING\ASSIGN 1\Lab1_Handout\Lab1_Handout\app\src\main\AndroidManifest.xml:20:13-41
intent-filter#android.intent.action.MAIN+android.intent.category.LAUNCHER
ADDED from G:\CMU\S3- FALL 15\MOBILE SENSING\ASSIGN 1\Lab1_Handout\Lab1_Handout\app\src\main\AndroidManifest.xml:25:13-28:29
action#android.intent.action.MAIN
ADDED from G:\CMU\S3- FALL 15\MOBILE SENSING\ASSIGN 1\Lab1_Handout\Lab1_Handout\app\src\main\AndroidManifest.xml:26:17-69
	android:name
		ADDED from G:\CMU\S3- FALL 15\MOBILE SENSING\ASSIGN 1\Lab1_Handout\Lab1_Handout\app\src\main\AndroidManifest.xml:26:25-66
category#android.intent.category.LAUNCHER
ADDED from G:\CMU\S3- FALL 15\MOBILE SENSING\ASSIGN 1\Lab1_Handout\Lab1_Handout\app\src\main\AndroidManifest.xml:27:17-77
	android:name
		ADDED from G:\CMU\S3- FALL 15\MOBILE SENSING\ASSIGN 1\Lab1_Handout\Lab1_Handout\app\src\main\AndroidManifest.xml:27:27-74
service#edu.umass.cs.client.Context_Service
ADDED from G:\CMU\S3- FALL 15\MOBILE SENSING\ASSIGN 1\Lab1_Handout\Lab1_Handout\app\src\main\AndroidManifest.xml:31:9-52
	android:name
		ADDED from G:\CMU\S3- FALL 15\MOBILE SENSING\ASSIGN 1\Lab1_Handout\Lab1_Handout\app\src\main\AndroidManifest.xml:31:18-49
receiver#edu.umass.cs.client.Consense_Service$Context_BGReceiver
ADDED from G:\CMU\S3- FALL 15\MOBILE SENSING\ASSIGN 1\Lab1_Handout\Lab1_Handout\app\src\main\AndroidManifest.xml:33:9-38:20
	android:name
		ADDED from G:\CMU\S3- FALL 15\MOBILE SENSING\ASSIGN 1\Lab1_Handout\Lab1_Handout\app\src\main\AndroidManifest.xml:33:19-69
intent-filter#android.intent.action.BOOT_COMPLETED
ADDED from G:\CMU\S3- FALL 15\MOBILE SENSING\ASSIGN 1\Lab1_Handout\Lab1_Handout\app\src\main\AndroidManifest.xml:34:13-37:29
action#android.intent.action.BOOT_COMPLETED
ADDED from G:\CMU\S3- FALL 15\MOBILE SENSING\ASSIGN 1\Lab1_Handout\Lab1_Handout\app\src\main\AndroidManifest.xml:35:17-36:26
	android:name
		ADDED from G:\CMU\S3- FALL 15\MOBILE SENSING\ASSIGN 1\Lab1_Handout\Lab1_Handout\app\src\main\AndroidManifest.xml:35:25-76
receiver#com.android.aware_framework.Screen_Service$ScreenReceiver
ADDED from G:\CMU\S3- FALL 15\MOBILE SENSING\ASSIGN 1\Lab1_Handout\Lab1_Handout\app\src\main\AndroidManifest.xml:41:9-48:20
	android:name
		ADDED from G:\CMU\S3- FALL 15\MOBILE SENSING\ASSIGN 1\Lab1_Handout\Lab1_Handout\app\src\main\AndroidManifest.xml:41:19-91
intent-filter#android.intent.action.SCREEN_OFF+android.intent.action.SCREEN_ON
ADDED from G:\CMU\S3- FALL 15\MOBILE SENSING\ASSIGN 1\Lab1_Handout\Lab1_Handout\app\src\main\AndroidManifest.xml:42:13-47:29
action#android.intent.action.SCREEN_ON
ADDED from G:\CMU\S3- FALL 15\MOBILE SENSING\ASSIGN 1\Lab1_Handout\Lab1_Handout\app\src\main\AndroidManifest.xml:43:17-44:26
	android:name
		ADDED from G:\CMU\S3- FALL 15\MOBILE SENSING\ASSIGN 1\Lab1_Handout\Lab1_Handout\app\src\main\AndroidManifest.xml:43:25-71
action#android.intent.action.SCREEN_OFF
ADDED from G:\CMU\S3- FALL 15\MOBILE SENSING\ASSIGN 1\Lab1_Handout\Lab1_Handout\app\src\main\AndroidManifest.xml:45:17-46:26
	android:name
		ADDED from G:\CMU\S3- FALL 15\MOBILE SENSING\ASSIGN 1\Lab1_Handout\Lab1_Handout\app\src\main\AndroidManifest.xml:45:25-72
